src/serial_tb.vcd
$date
	Tue Apr 21 17:27:11 2026
$end
$version
	Icarus Verilog
$end
$timescale
	1ps
$end
$scope module serial_tb $end
$var wire 1 ! Done $end
$var wire 8 " Data_out [7:0] $end
$var parameter 32 # CLK_HALF $end
$var parameter 32 $ CLK_PERIOD $end
$var parameter 32 % N_BITS $end
$var parameter 3 & OP_ADD $end
$var parameter 3 ' OP_AND $end
$var parameter 3 ( OP_OR $end
$var parameter 3 ) OP_SUB $end
$var parameter 3 * OP_XOR $end
$var reg 1 + Bit_in $end
$var reg 1 , CLK $end
$var reg 1 - RST_n $end
$var reg 1 . done_seen $end
$var reg 3 / op [2:0] $end
$var reg 8 0 result_out [7:0] $end
$var integer 32 1 failed [31:0] $end
$var integer 32 2 passed [31:0] $end
$var integer 32 3 test_num [31:0] $end
$scope module DUT $end
$var wire 1 + Bit_in $end
$var wire 1 , CLK $end
$var wire 8 4 Data_out [7:0] $end
$var wire 1 ! Done $end
$var wire 1 - RST_n $end
$var wire 3 5 op [2:0] $end
$var wire 8 6 alu_out [7:0] $end
$var parameter 5 7 CNT_A_END $end
$var parameter 5 8 CNT_B_END $end
$var parameter 2 9 S_CALC $end
$var parameter 2 : S_DONE $end
$var parameter 2 ; S_RECV $end
$var reg 5 < bit_count [4:0] $end
$var reg 1 = done_reg $end
$var reg 7 > reg_A [6:0] $end
$var reg 7 ? reg_B [6:0] $end
$var reg 8 @ reg_result [7:0] $end
$var reg 2 A state [1:0] $end
$scope module u_alu $end
$var wire 7 B A [6:0] $end
$var wire 7 C B [6:0] $end
$var wire 3 D op [2:0] $end
$var reg 8 E result [7:0] $end
$upscope $end
$upscope $end
$scope task check_result $end
$var reg 7 F A_val [6:0] $end
$var reg 7 G B_val [6:0] $end
$var reg 64 H desc [63:0] $end
$var reg 8 I expected [7:0] $end
$var reg 3 J op_val [2:0] $end
$upscope $end
$scope task reset_dut $end
$upscope $end
$scope task run_operation $end
$var reg 7 K A_val [6:0] $end
$var reg 7 L B_val [6:0] $end
$var reg 3 M op_val [2:0] $end
$var integer 32 N wait_cycles [31:0] $end
$upscope $end
$scope task send_serial $end
$var reg 7 O data [6:0] $end
$var integer 32 P i [31:0] $end
$upscope $end
$upscope $end
$enddefinitions $end
$comment Show the parameter values. $end
$dumpall
b0 ;
b10 :
b1 9
b1101 8
b110 7
b11 *
b100 )
b10 (
b1 '
b0 &
b111 %
b10100 $
b1010 #
$end
#0
$dumpvars
bx P
bx O
bx N
b0 M
b11110 L
b10100 K
bx J
bx I
bx H
bx G
bx F
bx E
b0 D
bx C
bx B
bx A
bx @
bx ?
bx >
x=
bx <
bx 6
b0 5
bx 4
b0 3
b0 2
b0 1
bx 0
b0 /
x.
0-
0,
0+
bx "
x!
$end
#10000
b0 6
b0 E
0!
0=
b0 "
b0 4
b0 @
b0 ?
b0 C
b0 >
b0 B
b0 <
b0 A
1,
#20000
0,
#30000
1,
#40000
0,
#50000
1,
#60000
0,
#70000
1,
#80000
b0 P
b10100 O
1-
0,
#90000
b1 <
1,
#100000
0,
#110000
b10 <
b1 P
1,
#120000
0,
#130000
b11 <
b10 P
1,
#140000
1+
0,
#150000
b1000000 6
b1000000 E
b100 <
b1000000 >
b1000000 B
b11 P
1,
#160000
0+
0,
#170000
b100000 6
b100000 E
b101 <
b100000 >
b100000 B
b100 P
1,
#180000
1+
0,
#190000
b1010000 6
b1010000 E
b110 <
b1010000 >
b1010000 B
b101 P
1,
#200000
0+
0,
#210000
b101000 6
b101000 E
b111 <
b101000 >
b101000 B
b110 P
1,
#220000
0,
#230000
b1000 <
b11110 O
b0 P
1,
#240000
0,
#250000
b1001 <
b1 P
1,
#260000
1+
0,
#270000
b1101000 6
b1101000 E
b1010 <
b1000000 ?
b1000000 C
b10 P
1,
#280000
0,
#290000
b10001000 6
b10001000 E
b1011 <
b1100000 ?
b1100000 C
b11 P
1,
#300000
0,
#310000
b10011000 6
b10011000 E
b1100 <
b1110000 ?
b1110000 C
b100 P
1,
#320000
0,
#330000
b10100000 6
b10100000 E
b1101 <
b1111000 ?
b1111000 C
b101 P
1,
#340000
0+
0,
#350000
b1100100 6
b1100100 E
b0 <
b1 A
b111100 ?
b111100 C
b110 P
1,
#360000
0,
#370000
b10 A
1!
1=
b1100100 "
b1100100 4
b1100100 @
b0 N
0.
b111 P
1,
#380000
0,
#390000
0!
0=
b101 N
b1100100 0
1.
1,
#400000
b1111 L
b1010 K
b1 1
b1 3
b100000101000100010001000101111101001110010100100100110100110001 H
b110010 I
b0 J
b11110 G
b10100 F
0,
#410000
1,
#420000
0-
0,
#430000
b0 6
b0 E
b0 "
b0 4
b0 @
b0 ?
b0 C
b0 >
b0 B
b0 A
1,
#440000
0,
#450000
1,
#460000
0,
#470000
1,
#480000
b0 P
b1010 O
1-
0,
#490000
b1 <
1,
#500000
0,
#510000
b10 <
b1 P
1,
#520000
1+
0,
#530000
b1000000 6
b1000000 E
b11 <
b1000000 >
b1000000 B
b10 P
1,
#540000
0+
0,
#550000
b100000 6
b100000 E
b100 <
b100000 >
b100000 B
b11 P
1,
#560000
1+
0,
#570000
b1010000 6
b1010000 E
b101 <
b1010000 >
b1010000 B
b100 P
1,
#580000
0+
0,
#590000
b101000 6
b101000 E
b110 <
b101000 >
b101000 B
b101 P
1,
#600000
0,
#610000
b10100 6
b10100 E
b111 <
b10100 >
b10100 B
b110 P
1,
#620000
0,
#630000
b1000 <
b1111 O
b0 P
1,
#640000
1+
0,
#650000
b1010100 6
b1010100 E
b1001 <
b1000000 ?
b1000000 C
b1 P
1,
#660000
0,
#670000
b1110100 6
b1110100 E
b1010 <
b1100000 ?
b1100000 C
b10 P
1,
#680000
0,
#690000
b10000100 6
b10000100 E
b1011 <
b1110000 ?
b1110000 C
b11 P
1,
#700000
0,
#710000
b10001100 6
b10001100 E
b1100 <
b1111000 ?
b1111000 C
b100 P
1,
#720000
0+
0,
#730000
b1010000 6
b1010000 E
b1101 <
b111100 ?
b111100 C
b101 P
1,
#740000
0,
#750000
b110010 6
b110010 E
b0 <
b1 A
b11110 ?
b11110 C
b110 P
1,
#760000
0,
#770000
b10 A
1!
1=
b110010 "
b110010 4
b110010 @
b0 N
bx 0
0.
b111 P
1,
#780000
0,
#790000
0!
0=
b101 N
b110010 0
1.
1,
#800000
b1100100 L
b1100100 K
b10 1
b10 3
b100000101000100010001000101111101001110010100100100110100110010 H
b11001 I
b1111 G
b1010 F
0,
#810000
1,
#820000
0-
0,
#830000
b0 6
b0 E
b0 "
b0 4
b0 @
b0 ?
b0 C
b0 >
b0 B
b0 A
1,
#840000
0,
#850000
1,
#860000
0,
#870000
1,
#880000
b0 P
b1100100 O
1-
0,
#890000
b1 <
1,
#900000
0,
#910000
b10 <
b1 P
1,
#920000
0,
#930000
b11 <
b10 P
1,
#940000
1+
0,
#950000
b1000000 6
b1000000 E
b100 <
b1000000 >
b1000000 B
b11 P
1,
#960000
0+
0,
#970000
b100000 6
b100000 E
b101 <
b100000 >
b100000 B
b100 P
1,
#980000
0,
#990000
b10000 6
b10000 E
b110 <
b10000 >
b10000 B
b101 P
1,
#1000000
1+
0,
#1010000
b1001000 6
b1001000 E
b111 <
b1001000 >
b1001000 B
b110 P
1,
#1020000
0,
#1030000
b10001000 6
b10001000 E
b1000 <
b1000000 ?
b1000000 C
b0 P
1,
#1040000
0+
0,
#1050000
b1101000 6
b1101000 E
b1001 <
b100000 ?
b100000 C
b1 P
1,
#1060000
0,
#1070000
b1011000 6
b1011000 E
b1010 <
b10000 ?
b10000 C
b10 P
1,
#1080000
1+
0,
#1090000
b10010000 6
b10010000 E
b1011 <
b1001000 ?
b1001000 C
b11 P
1,
#1100000
0+
0,
#1110000
b1101100 6
b1101100 E
b1100 <
b100100 ?
b100100 C
b100 P
1,
#1120000
0,
#1130000
b1011010 6
b1011010 E
b1101 <
b10010 ?
b10010 C
b101 P
1,
#1140000
1+
0,
#1150000
b10010001 6
b10010001 E
b0 <
b1 A
b1001001 ?
b1001001 C
b110 P
1,
#1160000
0,
#1170000
b10 A
1!
1=
b10010001 "
b10010001 4
b10010001 @
b0 N
bx 0
0.
b111 P
1,
#1180000
0,
#1190000
0!
0=
b101 N
b10010001 0
1.
1,
#1200000
b0 L
b0 K
b11 1
b11 3
b100000101000100010001000101111101000011010100100101001001011001 H
b11001000 I
b1100100 G
b1100100 F
0+
0,
#1210000
1,
#1220000
0-
0,
#1230000
b0 6
b0 E
b0 "
b0 4
b0 @
b0 ?
b0 C
b0 >
b0 B
b0 A
1,
#1240000
0,
#1250000
1,
#1260000
0,
#1270000
1,
#1280000
b0 P
b0 O
1-
0,
#1290000
b1 <
1,
#1300000
0,
#1310000
b10 <
b1 P
1,
#1320000
0,
#1330000
b11 <
b10 P
1,
#1340000
0,
#1350000
b100 <
b11 P
1,
#1360000
0,
#1370000
b101 <
b100 P
1,
#1380000
0,
#1390000
b110 <
b101 P
1,
#1400000
0,
#1410000
b111 <
b110 P
1,
#1420000
0,
#1430000
b1000 <
b0 P
1,
#1440000
0,
#1450000
b1001 <
b1 P
1,
#1460000
0,
#1470000
b1010 <
b10 P
1,
#1480000
0,
#1490000
b1011 <
b11 P
1,
#1500000
0,
#1510000
b1100 <
b100 P
1,
#1520000
0,
#1530000
b1101 <
b101 P
1,
#1540000
0,
#1550000
b0 <
b1 A
b110 P
1,
#1560000
0,
#1570000
b10 A
1!
1=
b0 N
bx 0
0.
b111 P
1,
#1580000
0,
#1590000
0!
0=
b101 N
b0 0
1.
1,
#1600000
b1 L
b1111111 K
b1 2
b100 3
b100000101000100010001000101111101011010010001010101001001001111 H
b0 I
b0 G
b0 F
0,
#1610000
1,
#1620000
0-
0,
#1630000
b0 A
1,
#1640000
0,
#1650000
1,
#1660000
0,
#1670000
1,
#1680000
b0 P
b1111111 O
1-
0,
#1690000
b1 <
1,
#1700000
1+
0,
#1710000
b1000000 6
b1000000 E
b10 <
b1000000 >
b1000000 B
b1 P
1,
#1720000
0,
#1730000
b1100000 6
b1100000 E
b11 <
b1100000 >
b1100000 B
b10 P
1,
#1740000
0,
#1750000
b1110000 6
b1110000 E
b100 <
b1110000 >
b1110000 B
b11 P
1,
#1760000
0,
#1770000
b1111000 6
b1111000 E
b101 <
b1111000 >
b1111000 B
b100 P
1,
#1780000
0,
#1790000
b1111100 6
b1111100 E
b110 <
b1111100 >
b1111100 B
b101 P
1,
#1800000
0,
#1810000
b1111110 6
b1111110 E
b111 <
b1111110 >
b1111110 B
b110 P
1,
#1820000
0,
#1830000
b10111110 6
b10111110 E
b1000 <
b1000000 ?
b1000000 C
b1 O
b0 P
1,
#1840000
0,
#1850000
b11011110 6
b11011110 E
b1001 <
b1100000 ?
b1100000 C
b1 P
1,
#1860000
0+
0,
#1870000
b10101110 6
b10101110 E
b1010 <
b110000 ?
b110000 C
b10 P
1,
#1880000
0,
#1890000
b10010110 6
b10010110 E
b1011 <
b11000 ?
b11000 C
b11 P
1,
#1900000
0,
#1910000
b10001010 6
b10001010 E
b1100 <
b1100 ?
b1100 C
b100 P
1,
#1920000
0,
#1930000
b10000100 6
b10000100 E
b1101 <
b110 ?
b110 C
b101 P
1,
#1940000
0,
#1950000
b10000001 6
b10000001 E
b0 <
b1 A
b11 ?
b11 C
b110 P
1,
#1960000
0,
#1970000
b10 A
1!
1=
b10000001 "
b10000001 4
b10000001 @
b0 N
bx 0
0.
b111 P
1,
#1980000
0,
#1990000
0!
0=
b101 N
b10000001 0
1.
1,
#2000000
b1 M
b1100110 L
b1010101 K
b100 1
b101 3
b100000101000100010001000101111101001100010010010100110101010100 H
b10000000 I
b1 G
b1111111 F
0,
#2010000
1,
#2020000
0-
0,
#2030000
b0 6
b0 E
b0 "
b0 4
b0 @
b0 ?
b0 C
b0 >
b0 B
b0 A
1,
#2040000
0,
#2050000
1,
#2060000
0,
#2070000
1,
#2080000
b0 P
b1010101 O
b1 /
b1 5
b1 D
1-
0,
#2090000
b1 <
1,
#2100000
1+
0,
#2110000
b10 <
b1000000 >
b1000000 B
b1 P
1,
#2120000
0+
0,
#2130000
b11 <
b100000 >
b100000 B
b10 P
1,
#2140000
1+
0,
#2150000
b100 <
b1010000 >
b1010000 B
b11 P
1,
#2160000
0+
0,
#2170000
b101 <
b101000 >
b101000 B
b100 P
1,
#2180000
1+
0,
#2190000
b110 <
b1010100 >
b1010100 B
b101 P
1,
#2200000
0+
0,
#2210000
b111 <
b101010 >
b101010 B
b110 P
1,
#2220000
1+
0,
#2230000
b1000 <
b1000000 ?
b1000000 C
b1100110 O
b0 P
1,
#2240000
0+
0,
#2250000
b100000 6
b100000 E
b1001 <
b100000 ?
b100000 C
b1 P
1,
#2260000
1+
0,
#2270000
b0 6
b0 E
b1010 <
b1010000 ?
b1010000 C
b10 P
1,
#2280000
0,
#2290000
b101000 6
b101000 E
b1011 <
b1101000 ?
b1101000 C
b11 P
1,
#2300000
0+
0,
#2310000
b100000 6
b100000 E
b1100 <
b110100 ?
b110100 C
b100 P
1,
#2320000
0,
#2330000
b1010 6
b1010 E
b1101 <
b11010 ?
b11010 C
b101 P
1,
#2340000
1+
0,
#2350000
b1000 6
b1000 E
b0 <
b1 A
b1001101 ?
b1001101 C
b110 P
1,
#2360000
0,
#2370000
b10 A
1!
1=
b1000 "
b1000 4
b1000 @
b0 N
bx 0
0.
b111 P
1,
#2380000
0,
#2390000
0!
0=
b101 N
b1000 0
1.
1,
#2400000
b0 L
b1111111 K
b101 1
b110 3
b100000101001110010001000101111101001101010000010101001101001011 H
b1000100 I
b1 J
b1100110 G
b1010101 F
0+
0,
#2410000
1,
#2420000
0-
0,
#2430000
b0 6
b0 E
b0 "
b0 4
b0 @
b0 ?
b0 C
b0 >
b0 B
b0 A
1,
#2440000
0,
#2450000
1,
#2460000
0,
#2470000
1,
#2480000
b0 P
b1111111 O
1-
0,
#2490000
b1 <
1,
#2500000
1+
0,
#2510000
b10 <
b1000000 >
b1000000 B
b1 P
1,
#2520000
0,
#2530000
b11 <
b1100000 >
b1100000 B
b10 P
1,
#2540000
0,
#2550000
b100 <
b1110000 >
b1110000 B
b11 P
1,
#2560000
0,
#2570000
b101 <
b1111000 >
b1111000 B
b100 P
1,
#2580000
0,
#2590000
b110 <
b1111100 >
b1111100 B
b101 P
1,
#2600000
0,
#2610000
b111 <
b1111110 >
b1111110 B
b110 P
1,
#2620000
0,
#2630000
b1000000 6
b1000000 E
b1000 <
b1000000 ?
b1000000 C
b0 O
b0 P
1,
#2640000
0+
0,
#2650000
b100000 6
b100000 E
b1001 <
b100000 ?
b100000 C
b1 P
1,
#2660000
0,
#2670000
b10000 6
b10000 E
b1010 <
b10000 ?
b10000 C
b10 P
1,
#2680000
0,
#2690000
b1000 6
b1000 E
b1011 <
b1000 ?
b1000 C
b11 P
1,
#2700000
0,
#2710000
b100 6
b100 E
b1100 <
b100 ?
b100 C
b100 P
1,
#2720000
0,
#2730000
b10 6
b10 E
b1101 <
b10 ?
b10 C
b101 P
1,
#2740000
0,
#2750000
b0 6
b0 E
b0 <
b1 A
b1 ?
b1 C
b110 P
1,
#2760000
0,
#2770000
b10 A
1!
1=
b0 N
bx 0
0.
b111 P
1,
#2780000
0,
#2790000
0!
0=
b101 N
b0 0
1.
1,
#2800000
b1111111 L
b10 2
b111 3
b100000101001110010001000101111101011010010001010101001001001111 H
b0 I
b0 G
b1111111 F
0,
#2810000
1,
#2820000
0-
0,
#2830000
b0 ?
b0 C
b0 >
b0 B
b0 A
1,
#2840000
0,
#2850000
1,
#2860000
0,
#2870000
1,
#2880000
b0 P
b1111111 O
1-
0,
#2890000
b1 <
1,
#2900000
1+
0,
#2910000
b10 <
b1000000 >
b1000000 B
b1 P
1,
#2920000
0,
#2930000
b11 <
b1100000 >
b1100000 B
b10 P
1,
#2940000
0,
#2950000
b100 <
b1110000 >
b1110000 B
b11 P
1,
#2960000
0,
#2970000
b101 <
b1111000 >
b1111000 B
b100 P
1,
#2980000
0,
#2990000
b110 <
b1111100 >
b1111100 B
b101 P
1,
#3000000
0,
#3010000
b111 <
b1111110 >
b1111110 B
b110 P
1,
#3020000
0,
#3030000
b1000000 6
b1000000 E
b1000 <
b1000000 ?
b1000000 C
b0 P
1,
#3040000
0,
#3050000
b1100000 6
b1100000 E
b1001 <
b1100000 ?
b1100000 C
b1 P
1,
#3060000
0,
#3070000
b1110000 6
b1110000 E
b1010 <
b1110000 ?
b1110000 C
b10 P
1,
#3080000
0,
#3090000
b1111000 6
b1111000 E
b1011 <
b1111000 ?
b1111000 C
b11 P
1,
#3100000
0,
#3110000
b1111100 6
b1111100 E
b1100 <
b1111100 ?
b1111100 C
b100 P
1,
#3120000
0,
#3130000
b1111110 6
b1111110 E
b1101 <
b1111110 ?
b1111110 C
b101 P
1,
#3140000
0,
#3150000
b0 <
b1 A
b1111111 ?
b1111111 C
b110 P
1,
#3160000
0,
#3170000
b10 A
1!
1=
b1111110 "
b1111110 4
b1111110 @
b0 N
bx 0
0.
b111 P
1,
#3180000
0,
#3190000
0!
0=
b101 N
b1111110 0
1.
1,
#3200000
b10 M
b10101 L
b101010 K
b110 1
b1000 3
b100000101001110010001000101111101001001010001000100010101010100 H
b1111111 I
b1111111 G
0+
0,
#3210000
1,
#3220000
0-
0,
#3230000
b0 6
b0 E
b0 "
b0 4
b0 @
b0 ?
b0 C
b0 >
b0 B
b0 A
1,
#3240000
0,
#3250000
1,
#3260000
0,
#3270000
1,
#3280000
b0 P
b101010 O
b10 /
b10 5
b10 D
1-
0,
#3290000
b1 <
1,
#3300000
0,
#3310000
b10 <
b1 P
1,
#3320000
1+
0,
#3330000
b1000000 6
b1000000 E
b11 <
b1000000 >
b1000000 B
b10 P
1,
#3340000
0+
0,
#3350000
b100000 6
b100000 E
b100 <
b100000 >
b100000 B
b11 P
1,
#3360000
1+
0,
#3370000
b1010000 6
b1010000 E
b101 <
b1010000 >
b1010000 B
b100 P
1,
#3380000
0+
0,
#3390000
b101000 6
b101000 E
b110 <
b101000 >
b101000 B
b101 P
1,
#3400000
1+
0,
#3410000
b1010100 6
b1010100 E
b111 <
b1010100 >
b1010100 B
b110 P
1,
#3420000
0+
0,
#3430000
b1000 <
b10101 O
b0 P
1,
#3440000
1+
0,
#3450000
b1001 <
b1000000 ?
b1000000 C
b1 P
1,
#3460000
0+
0,
#3470000
b1110100 6
b1110100 E
b1010 <
b100000 ?
b100000 C
b10 P
1,
#3480000
1+
0,
#3490000
b1010100 6
b1010100 E
b1011 <
b1010000 ?
b1010000 C
b11 P
1,
#3500000
0+
0,
#3510000
b1111100 6
b1111100 E
b1100 <
b101000 ?
b101000 C
b100 P
1,
#3520000
1+
0,
#3530000
b1010100 6
b1010100 E
b1101 <
b1010100 ?
b1010100 C
b101 P
1,
#3540000
0+
0,
#3550000
b1111110 6
b1111110 E
b0 <
b1 A
b101010 ?
b101010 C
b110 P
1,
#3560000
0,
#3570000
b10 A
1!
1=
b1111110 "
b1111110 4
b1111110 @
b0 N
bx 0
0.
b111 P
1,
#3580000
0,
#3590000
0!
0=
b101 N
b1111110 0
1.
1,
#3600000
b1111111 L
b0 K
b111 1
b1001 3
b100111101010010010111110101111101000011010011010101000001001100 H
b111111 I
b10 J
b10101 G
b101010 F
0,
#3610000
1,
#3620000
0-
0,
#3630000
b0 6
b0 E
b0 "
b0 4
b0 @
b0 ?
b0 C
b0 >
b0 B
b0 A
1,
#3640000
0,
#3650000
1,
#3660000
0,
#3670000
1,
#3680000
b0 P
b0 O
1-
0,
#3690000
b1 <
1,
#3700000
0,
#3710000
b10 <
b1 P
1,
#3720000
0,
#3730000
b11 <
b10 P
1,
#3740000
0,
#3750000
b100 <
b11 P
1,
#3760000
0,
#3770000
b101 <
b100 P
1,
#3780000
0,
#3790000
b110 <
b101 P
1,
#3800000
0,
#3810000
b111 <
b110 P
1,
#3820000
0,
#3830000
b1000 <
b1111111 O
b0 P
1,
#3840000
1+
0,
#3850000
b1000000 6
b1000000 E
b1001 <
b1000000 ?
b1000000 C
b1 P
1,
#3860000
0,
#3870000
b1100000 6
b1100000 E
b1010 <
b1100000 ?
b1100000 C
b10 P
1,
#3880000
0,
#3890000
b1110000 6
b1110000 E
b1011 <
b1110000 ?
b1110000 C
b11 P
1,
#3900000
0,
#3910000
b1111000 6
b1111000 E
b1100 <
b1111000 ?
b1111000 C
b100 P
1,
#3920000
0,
#3930000
b1111100 6
b1111100 E
b1101 <
b1111100 ?
b1111100 C
b101 P
1,
#3940000
0,
#3950000
b1111110 6
b1111110 E
b0 <
b1 A
b1111110 ?
b1111110 C
b110 P
1,
#3960000
0,
#3970000
b10 A
1!
1=
b1111110 "
b1111110 4
b1111110 @
b0 N
bx 0
0.
b111 P
1,
#3980000
0,
#3990000
0!
0=
b101 N
b1111110 0
1.
1,
#4000000
b11 M
b1010101 L
b1111111 K
b1000 1
b1010 3
b100111101010010010111110101111101001001010001000100010101010100 H
b1111111 I
b1111111 G
b0 F
0+
0,
#4010000
1,
#4020000
0-
0,
#4030000
b0 6
b0 E
b0 "
b0 4
b0 @
b0 ?
b0 C
b0 A
1,
#4040000
0,
#4050000
1,
#4060000
0,
#4070000
1,
#4080000
b0 P
b11 /
b11 5
b11 D
1-
0,
#4090000
b1 <
1,
#4100000
1+
0,
#4110000
b1000000 6
b1000000 E
b10 <
b1000000 >
b1000000 B
b1 P
1,
#4120000
0,
#4130000
b1100000 6
b1100000 E
b11 <
b1100000 >
b1100000 B
b10 P
1,
#4140000
0,
#4150000
b1110000 6
b1110000 E
b100 <
b1110000 >
b1110000 B
b11 P
1,
#4160000
0,
#4170000
b1111000 6
b1111000 E
b101 <
b1111000 >
b1111000 B
b100 P
1,
#4180000
0,
#4190000
b1111100 6
b1111100 E
b110 <
b1111100 >
b1111100 B
b101 P
1,
#4200000
0,
#4210000
b1111110 6
b1111110 E
b111 <
b1111110 >
b1111110 B
b110 P
1,
#4220000
0,
#4230000
b111110 6
b111110 E
b1000 <
b1000000 ?
b1000000 C
b1010101 O
b0 P
1,
#4240000
0,
#4250000
b11110 6
b11110 E
b1001 <
b1100000 ?
b1100000 C
b1 P
1,
#4260000
0+
0,
#4270000
b1001110 6
b1001110 E
b1010 <
b110000 ?
b110000 C
b10 P
1,
#4280000
1+
0,
#4290000
b100110 6
b100110 E
b1011 <
b1011000 ?
b1011000 C
b11 P
1,
#4300000
0+
0,
#4310000
b1010010 6
b1010010 E
b1100 <
b101100 ?
b101100 C
b100 P
1,
#4320000
1+
0,
#4330000
b101000 6
b101000 E
b1101 <
b1010110 ?
b1010110 C
b101 P
1,
#4340000
0+
0,
#4350000
b1010101 6
b1010101 E
b0 <
b1 A
b101011 ?
b101011 C
b110 P
1,
#4360000
1+
0,
#4370000
b10 A
1!
1=
b1010101 "
b1010101 4
b1010101 @
b0 N
bx 0
0.
b111 P
1,
#4380000
0,
#4390000
0!
0=
b101 N
b1010101 0
1.
1,
#4400000
b1100110 L
b1100110 K
b1001 1
b1011 3
b101100001001111010100100101111101000100010010010100011001000110 H
b101010 I
b11 J
b1010101 G
b1111111 F
0+
0,
#4410000
1,
#4420000
0-
0,
#4430000
b0 6
b0 E
b0 "
b0 4
b0 @
b0 ?
b0 C
b0 >
b0 B
b0 A
1,
#4440000
0,
#4450000
1,
#4460000
0,
#4470000
1,
#4480000
b0 P
b1100110 O
1-
0,
#4490000
b1 <
1,
#4500000
0,
#4510000
b10 <
b1 P
1,
#4520000
1+
0,
#4530000
b1000000 6
b1000000 E
b11 <
b1000000 >
b1000000 B
b10 P
1,
#4540000
0,
#4550000
b1100000 6
b1100000 E
b100 <
b1100000 >
b1100000 B
b11 P
1,
#4560000
0+
0,
#4570000
b110000 6
b110000 E
b101 <
b110000 >
b110000 B
b100 P
1,
#4580000
0,
#4590000
b11000 6
b11000 E
b110 <
b11000 >
b11000 B
b101 P
1,
#4600000
1+
0,
#4610000
b1001100 6
b1001100 E
b111 <
b1001100 >
b1001100 B
b110 P
1,
#4620000
0,
#4630000
b1100 6
b1100 E
b1000 <
b1000000 ?
b1000000 C
b0 P
1,
#4640000
0+
0,
#4650000
b1101100 6
b1101100 E
b1001 <
b100000 ?
b100000 C
b1 P
1,
#4660000
1+
0,
#4670000
b11100 6
b11100 E
b1010 <
b1010000 ?
b1010000 C
b10 P
1,
#4680000
0,
#4690000
b100100 6
b100100 E
b1011 <
b1101000 ?
b1101000 C
b11 P
1,
#4700000
0+
0,
#4710000
b1111000 6
b1111000 E
b1100 <
b110100 ?
b110100 C
b100 P
1,
#4720000
0,
#4730000
b1010110 6
b1010110 E
b1101 <
b11010 ?
b11010 C
b101 P
1,
#4740000
1+
0,
#4750000
b1 6
b1 E
b0 <
b1 A
b1001101 ?
b1001101 C
b110 P
1,
#4760000
0,
#4770000
b10 A
1!
1=
b1 "
b1 4
b1 @
b0 N
bx 0
0.
b111 P
1,
#4780000
0,
#4790000
0!
0=
b101 N
b1 0
1.
1,
#4800000
b100 M
b10100 L
b110010 K
b1010 1
b1100 3
b101100001001111010100100101111101010011010001010100110001000110 H
b0 I
b1100110 G
b1100110 F
0+
0,
#4810000
1,
#4820000
0-
0,
#4830000
b0 6
b0 E
b0 "
b0 4
b0 @
b0 ?
b0 C
b0 >
b0 B
b0 A
1,
#4840000
0,
#4850000
1,
#4860000
0,
#4870000
1,
#4880000
b0 P
b110010 O
b100 /
b100 5
b100 D
1-
0,
#4890000
b1 <
1,
#4900000
0,
#4910000
b10 <
b1 P
1,
#4920000
1+
0,
#4930000
b1000000 6
b1000000 E
b11 <
b1000000 >
b1000000 B
b10 P
1,
#4940000
0+
0,
#4950000
b100000 6
b100000 E
b100 <
b100000 >
b100000 B
b11 P
1,
#4960000
0,
#4970000
b10000 6
b10000 E
b101 <
b10000 >
b10000 B
b100 P
1,
#4980000
1+
0,
#4990000
b1001000 6
b1001000 E
b110 <
b1001000 >
b1001000 B
b101 P
1,
#5000000
0,
#5010000
b1100100 6
b1100100 E
b111 <
b1100100 >
b1100100 B
b110 P
1,
#5020000
0+
0,
#5030000
b1000 <
b10100 O
b0 P
1,
#5040000
0,
#5050000
b1001 <
b1 P
1,
#5060000
0,
#5070000
b1010 <
b10 P
1,
#5080000
1+
0,
#5090000
b100100 6
b100100 E
b1011 <
b1000000 ?
b1000000 C
b11 P
1,
#5100000
0+
0,
#5110000
b1000100 6
b1000100 E
b1100 <
b100000 ?
b100000 C
b100 P
1,
#5120000
1+
0,
#5130000
b10100 6
b10100 E
b1101 <
b1010000 ?
b1010000 C
b101 P
1,
#5140000
0+
0,
#5150000
b111100 6
b111100 E
b0 <
b1 A
b101000 ?
b101000 C
b110 P
1,
#5160000
0,
#5170000
b10 A
1!
1=
b111100 "
b111100 4
b111100 @
b0 N
bx 0
0.
b111 P
1,
#5180000
0,
#5190000
0!
0=
b101 N
b111100 0
1.
1,
#5200000
b1001101 L
b1001101 K
b1011 1
b1101 3
b101001101010101010000100101111101001110010011110101001001001101 H
b11110 I
b100 J
b10100 G
b110010 F
0,
#5210000
1,
#5220000
0-
0,
#5230000
b0 6
b0 E
b0 "
b0 4
b0 @
b0 ?
b0 C
b0 >
b0 B
b0 A
1,
#5240000
0,
#5250000
1,
#5260000
0,
#5270000
1,
#5280000
b0 P
b1001101 O
1-
0,
#5290000
b1 <
1,
#5300000
1+
0,
#5310000
b1000000 6
b1000000 E
b10 <
b1000000 >
b1000000 B
b1 P
1,
#5320000
0+
0,
#5330000
b100000 6
b100000 E
b11 <
b100000 >
b100000 B
b10 P
1,
#5340000
1+
0,
#5350000
b1010000 6
b1010000 E
b100 <
b1010000 >
b1010000 B
b11 P
1,
#5360000
0,
#5370000
b1101000 6
b1101000 E
b101 <
b1101000 >
b1101000 B
b100 P
1,
#5380000
0+
0,
#5390000
b110100 6
b110100 E
b110 <
b110100 >
b110100 B
b101 P
1,
#5400000
0,
#5410000
b11010 6
b11010 E
b111 <
b11010 >
b11010 B
b110 P
1,
#5420000
1+
0,
#5430000
b11011010 6
b11011010 E
b1000 <
b1000000 ?
b1000000 C
b0 P
1,
#5440000
0,
#5450000
b10111010 6
b10111010 E
b1001 <
b1100000 ?
b1100000 C
b1 P
1,
#5460000
0+
0,
#5470000
b11101010 6
b11101010 E
b1010 <
b110000 ?
b110000 C
b10 P
1,
#5480000
1+
0,
#5490000
b11000010 6
b11000010 E
b1011 <
b1011000 ?
b1011000 C
b11 P
1,
#5500000
0,
#5510000
b10101110 6
b10101110 E
b1100 <
b1101100 ?
b1101100 C
b100 P
1,
#5520000
0+
0,
#5530000
b11100100 6
b11100100 E
b1101 <
b110110 ?
b110110 C
b101 P
1,
#5540000
0,
#5550000
b11111111 6
b11111111 E
b0 <
b1 A
b11011 ?
b11011 C
b110 P
1,
#5560000
1+
0,
#5570000
b10 A
1!
1=
b11111111 "
b11111111 4
b11111111 @
b0 N
bx 0
0.
b111 P
1,
#5580000
0,
#5590000
0!
0=
b101 N
b11111111 0
1.
1,
#5600000
b11110 L
b1010 K
b1100 1
b1110 3
b101001101010101010000100101111101011010010001010101001001001111 H
b0 I
b1001101 G
b1001101 F
0+
0,
#5610000
1,
#5620000
0-
0,
#5630000
b0 6
b0 E
b0 "
b0 4
b0 @
b0 ?
b0 C
b0 >
b0 B
b0 A
1,
#5640000
0,
#5650000
1,
#5660000
0,
#5670000
1,
#5680000
b0 P
b1010 O
1-
0,
#5690000
b1 <
1,
#5700000
0,
#5710000
b10 <
b1 P
1,
#5720000
1+
0,
#5730000
b1000000 6
b1000000 E
b11 <
b1000000 >
b1000000 B
b10 P
1,
#5740000
0+
0,
#5750000
b100000 6
b100000 E
b100 <
b100000 >
b100000 B
b11 P
1,
#5760000
1+
0,
